…
## Let’s simulate a lot

**for loop**

``` r
output = vector("list", length = 100)#vector of type list
for (i in 1:100) {
  
  output[[i]] = sim_mean_sd(samp_size = 30)
  
}
bind_rows(output)#not a list but data frame
```

    ## # A tibble: 100 x 2
    ##     mean    sd
    ##    <dbl> <dbl>
    ##  1  1.35  4.13
    ##  2  4.04  4.03
    ##  3  3.51  4.24
    ##  4  2.08  4.17
    ##  5  3.23  4.30
    ##  6  3.98  3.66
    ##  7  3.21  3.44
    ##  8  2.71  4.52
    ##  9  3.16  3.82
    ## 10  3.04  4.08
    ## # ... with 90 more rows
…
``` r
# there are 10 lists in the first list, so we combine the 10 list to a tibble
sim_results  %>% 
  mutate(
  estimate_df = map(output_lists, bind_rows)
  ) %>% 
  pull(estimate_df)
```

    ## [[1]]
    ## # A tibble: 100 x 2
    ##     mean    sd
    ##    <dbl> <dbl>
    ##  1  2.75  3.94
    ##  2  2.52  4.32
    ##  3  2.76  3.65
    ##  4  2.14  3.12
    ##  5  2.79  3.65
    ##  6  3.73  4.25
    ##  7  1.37  3.95
    ##  8  3.48  4.25
    ##  9  2.96  3.93
    ## 10  2.76  3.72
    ## # ... with 90 more rows
    ## 
    ## [[2]]
    ## # A tibble: 100 x 2
    ##     mean    sd
    ##    <dbl> <dbl>
    ##  1  1.69  3.87
    ##  2  2.66  3.90
    ##  3  3.19  4.11
    ##  4  3.02  3.93
    ##  5  3.97  3.51
    ##  6  2.93  4.08
    ##  7  3.76  3.35
    ##  8  2.92  4.03
    ##  9  3.56  4.48
    ## 10  3.70  3.91
    ## # ... with 90 more rows
    ## 
    ## [[3]]
    ## # A tibble: 100 x 2
    ##     mean    sd
    ##    <dbl> <dbl>
    ##  1  2.99  4.21
    ##  2  3.24  3.99
    ##  3  3.20  3.89
    ##  4  3.14  4.21
    ##  5  2.89  3.66
    ##  6  3.21  3.68
    ##  7  2.92  4.12
    ##  8  3.12  4.18
    ##  9  3.11  4.37
    ## 10  2.61  3.95
    ## # ... with 90 more rows
    ## 
    ## [[4]]
    ## # A tibble: 100 x 2
    ##     mean    sd
    ##    <dbl> <dbl>
    ##  1  3.15  4.03
    ##  2  3.43  4.07
    ##  3  3.35  3.98
    ##  4  2.53  4.03
    ##  5  3.14  3.94
    ##  6  3.04  4.00
    ##  7  2.77  3.98
    ##  8  2.89  3.84
    ##  9  3.35  3.98
    ## 10  3.19  3.87
    ## # ... with 90 more rows
…
